25

8 11
7
4 7
0 9
6 1
6 9
2 0
3 10
0 5
9 8

14 3
20
3 1
10 0
10 0
9 1
7 1
8 0
13 0
0 2
1 0
11 0
7 0
3 2
11 0
10 1
9 1
12 0
5 1
9 2
1 2
6 0
4 6

2 12
22
0 4
1 0
1 10
0 2
0 9
0 11
1 7
1 6
1 1
0 5
0 8
0 0
0 6
0 1
0 11
0 11
0 4
1 6
0 0
0 7
0 2
1 10
2 4

11 3
24
4 2
0 1
1 0
1 0
4 0
2 2
0 0
5 1
0 1
2 1
7 1
6 2
8 0
3 0
7 2
7 0
9 1
5 2
4 0
2 1
0 2
7 2
8 0
3 1
9 2

8 8
14
7 1
4 5
6 3
1 6
2 2
6 1
1 1
6 7
1 6
7 0
1 6
2 0
2 4
6 7
2 4

13 8
21
9 1
6 0
4 4
7 2
5 4
2 0
6 0
7 7
8 0
7 6
1 1
1 2
8 5
10 6
0 5
10 7
3 3
3 1
12 4
12 5
7 3
15 1

15 3
24
10 0
11 0
7 1
10 1
11 2
13 0
14 0
11 0
0 0
11 2
14 0
2 1
2 1
8 1
10 0
4 2
2 0
4 1
4 2
3 1
10 0
0 0
14 2
4 0
15 8

6 1
24
2 0
1 0
1 0
2 0
4 0
4 0
4 0
3 0
4 0
3 0
1 0
1 0
2 0
0 0
1 0
3 0
2 0
1 0
1 0
1 0
4 0
2 0
1 0
0 0
13 2

3 4
15
2 2
1 1
2 0
0 1
2 3
2 2
0 2
0 1
0 3
2 3
1 3
1 3
0 2
1 2
1 1
7 3

6 10
19
5 2
1 7
5 2
0 6
3 8
3 9
5 8
5 2
5 0
0 4
2 1
0 8
1 9
4 4
5 6
4 3
5 6
1 5
0 9
10 12

5 7
11
1 5
2 1
4 6
0 4
1 1
0 1
1 0
4 4
3 1
0 6
3 3
1 3

12 4
13
10 0
6 0
2 2
11 3
4 0
4 0
8 1
10 3
1 2
5 2
1 3
2 1
8 2
12 10

15 4
13
2 1
9 0
3 3
8 3
1 3
9 2
7 0
8 1
11 3
9 3
11 3
6 2
0 3
14 2

13 11
7
5 0
4 3
12 10
5 3
9 5
3 1
11 8
9 8

1 13
20
0 1
0 5
0 5
0 6
0 3
0 11
0 3
0 9
0 9
0 12
0 1
0 9
0 11
0 2
0 3
0 3
0 4
0 7
0 2
0 3
2 5

6 5
16
1 2
5 1
1 2
3 1
0 1
1 4
0 2
4 1
1 0
2 0
2 0
4 4
1 4
4 3
4 4
2 2
8 7

6 2
19
0 1
0 0
3 1
4 1
2 0
2 1
1 0
0 0
1 1
2 1
0 1
1 1
3 1
2 0
4 1
2 1
2 0
0 0
4 0
2 15

10 4
9
4 2
7 2
1 2
2 0
6 2
9 0
1 3
3 2
3 0
14 12

3 2
17
1 0
2 1
0 0
2 0
0 1
2 1
0 0
0 1
1 1
1 0
0 1
2 0
1 1
1 1
0 0
1 0
0 0
1 10

1 10
17
0 6
0 0
0 5
0 8
0 2
0 7
0 3
0 2
0 9
0 9
0 0
0 7
0 6
0 7
0 0
0 2
0 9
3 7

15 14
8
8 3
14 10
14 3
2 13
14 6
5 10
0 4
1 9
6 12

11 11
7
8 5
0 6
2 8
10 6
0 1
0 1
3 4
14 12

9 12
23
6 5
6 1
4 9
5 5
0 7
4 6
4 8
2 2
4 10
8 5
6 3
6 8
2 7
3 10
4 10
3 6
0 9
7 9
2 5
0 0
3 9
2 4
1 4
3 9

9 4
5
5 3
1 3
4 1
3 2
4 3
12 12

12 4
14
0 3
8 0
1 2
11 1
5 1
11 3
10 3
7 2
0 0
2 1
10 3
8 2
0 1
9 2
1 3
