21

40 33
3
4 10
4 19
29 31
35 17

30 26
15
12 10
11 11
3 15
5 10
4 0
28 19
4 10
29 13
20 8
24 3
13 9
28 7
24 10
2 25
21 5
8 7

26 7
6
14 6
1 3
7 5
20 1
14 1
12 4
1 18

33 22
30
10 10
30 9
9 6
3 13
7 14
18 12
11 8
7 7
11 14
22 19
7 1
8 1
8 16
0 6
12 18
18 12
3 18
1 14
0 13
22 21
28 21
20 8
17 19
6 12
0 15
26 7
10 5
22 16
11 2
18 1
18 7

4 21
25
1 9
2 1
1 11
3 7
0 2
1 11
3 4
1 17
0 19
2 1
2 0
0 2
0 4
2 19
1 8
2 14
1 9
2 8
1 14
0 0
0 2
1 14
3 2
0 0
1 4
43 6

13 38
33
1 0
5 24
10 6
11 3
1 32
3 37
5 19
3 21
7 28
4 29
11 32
1 16
10 36
7 15
10 29
5 34
10 19
9 9
1 13
2 10
5 19
10 10
7 24
11 34
11 26
11 29
10 20
10 7
1 1
8 10
0 26
5 4
7 27
45 18

11 23
14
4 3
6 13
8 22
5 1
6 12
1 1
8 12
6 15
2 19
8 4
2 18
6 12
6 2
3 20
19 13

24 20
40
10 5
16 8
3 2
18 11
15 4
6 19
6 14
8 14
12 5
9 1
18 0
10 10
17 9
3 6
23 0
16 16
22 3
9 17
9 3
21 15
11 0
3 13
7 18
5 15
19 3
0 15
2 0
18 10
7 7
0 19
13 9
20 18
23 11
23 2
1 2
13 2
10 10
10 4
4 0
1 19
31 1

39 40
4
8 28
2 39
4 6
28 11
26 3

10 40
18
6 17
7 13
0 37
0 29
1 28
1 32
4 22
2 9
2 20
5 24
6 7
6 24
7 17
0 3
5 37
4 3
7 1
8 15
46 6

27 6
4
17 3
4 5
3 2
20 0
34 7

4 26
12
0 1
1 0
1 17
1 12
2 8
0 3
3 23
1 10
0 0
2 19
0 15
1 6
31 11

36 28
20
19 11
29 3
18 26
11 4
10 6
32 13
14 20
3 8
25 18
29 13
30 11
15 23
19 8
12 12
21 10
21 3
3 18
35 16
26 7
14 18
13 12

34 29
40
30 24
27 0
16 4
8 4
8 8
33 27
23 0
3 20
23 26
28 7
32 18
10 21
13 7
1 16
1 17
29 18
13 7
9 20
27 28
23 28
4 27
29 25
19 19
8 10
24 4
17 18
1 15
22 11
25 21
29 26
32 18
16 26
27 4
22 19
12 23
23 27
30 16
18 18
14 17
19 18
30 17

20 39
23
2 24
18 36
6 4
2 34
9 9
16 25
13 31
16 29
7 9
6 20
11 11
14 12
0 0
14 32
16 31
4 2
13 35
10 32
1 1
17 34
0 15
2 6
2 25
35 7

16 3
40
9 1
13 1
1 0
7 2
12 2
14 0
1 2
7 2
6 0
2 0
5 0
1 0
14 2
12 2
2 0
3 2
1 0
8 1
0 1
12 0
6 1
1 1
7 0
1 1
1 0
3 0
13 1
8 2
0 2
7 1
15 2
13 0
1 1
9 2
5 1
11 0
10 2
2 0
0 1
12 1
27 5

9 32
15
0 2
0 4
5 3
6 30
2 26
3 17
2 5
4 21
7 6
3 0
1 30
1 4
7 28
0 4
5 12
22 12

26 28
22
9 27
21 14
16 9
1 16
10 5
15 23
18 19
24 20
24 1
20 2
4 7
3 23
12 2
19 14
7 16
9 25
3 24
3 6
17 3
7 9
23 8
25 11
28 12

6 23
34
1 22
3 18
4 2
3 8
4 1
1 13
0 13
3 16
3 3
4 2
5 6
5 4
0 13
0 19
2 12
4 13
3 5
3 18
3 20
1 3
2 21
4 5
0 3
2 5
4 21
3 18
2 18
4 21
0 14
4 13
5 5
0 20
3 22
4 4
39 16

3 36
21
2 20
1 20
0 19
1 1
2 8
1 2
2 15
0 9
1 34
2 0
2 16
1 2
1 34
2 7
0 20
1 34
0 28
0 24
1 21
1 23
0 9
41 4

34 6
32
0 0
3 3
3 1
31 0
3 2
3 5
3 0
33 1
32 3
16 1
1 5
14 4
26 2
22 3
27 3
22 0
30 4
27 1
12 4
23 5
23 2
6 1
4 5
8 4
12 2
31 3
14 5
27 3
4 1
10 3
27 0
3 0
37 1
