*** Life<ConwayCell> 8x7 ***

Generation = 0, Population = 16.
....*.*
..**...
.......
.......
*.*....
*.**...
.**....
**.***.

Generation = 1, Population = 10.
...*...
...*...
.......
.......
..**...
*..*...
.......
**.**..

Generation = 2, Population = 9.
.......
.......
.......
.......
..**...
..**...
*****..
.......

Generation = 3, Population = 7.
.......
.......
.......
.......
..**...
.......
.*..*..
.***...

Generation = 4, Population = 7.
.......
.......
.......
.......
.......
..**...
.*.*...
.***...

Generation = 5, Population = 6.
.......
.......
.......
.......
.......
..**...
.*..*..
.*.*...

Generation = 6, Population = 5.
.......
.......
.......
.......
.......
..**...
.*..*..
..*....

Generation = 7, Population = 3.
.......
.......
.......
.......
.......
..**...
.*.....
.......

Generation = 8, Population = 2.
.......
.......
.......
.......
.......
..*....
..*....
.......

Generation = 9, Population = 0.
.......
.......
.......
.......
.......
.......
.......
.......

*** Life<ConwayCell> 8x9 ***

Generation = 0, Population = 20.
.******..
...**....
***......
*.*....*.
.........
..*......
.*....*..
*.*.....*

Generation = 2, Population = 10.
.........
.........
*........
*.*......
.*.......
.**......
.**......
.**......

Generation = 4, Population = 10.
.........
.........
.........
**.......
**.......
**.......
*.*......
.**......

Generation = 6, Population = 8.
.........
.........
.........
.*.......
..*......
..**.....
..**.....
.**......

Generation = 8, Population = 6.
.........
.........
.........
..*......
.**......
.*.......
.*.......
..*......

Generation = 10, Population = 6.
.........
.........
.........
.**......
.........
*........
***......
.........

Generation = 12, Population = 5.
.........
.........
.........
.........
.........
*........
**.......
**.......

*** Life<ConwayCell> 5x7 ***

Generation = 0, Population = 18.
***.**.
...***.
.**...*
...**.*
**.*.*.

Generation = 4, Population = 17.
.......
.******
**.**.*
.*....*
..****.

Generation = 8, Population = 6.
.......
.....**
.....**
.....**
.......

Generation = 12, Population = 0.
.......
.......
.......
.......
.......

Generation = 16, Population = 0.
.......
.......
.......
.......
.......

Generation = 20, Population = 0.
.......
.......
.......
.......
.......

*** Life<ConwayCell> 5x6 ***

Generation = 0, Population = 16.
.*...*
.***.*
..*..*
**..**
**.**.

Generation = 1, Population = 15.
.*..*.
.*.*.*
*....*
*....*
******

Generation = 2, Population = 19.
..*.*.
***..*
**...*
*.**.*
******

Generation = 3, Population = 12.
..**..
*.****
...*.*
.....*
*....*

Generation = 4, Population = 8.
.**...
.*...*
..**.*
.....*
......

Generation = 5, Population = 8.
.**...
.*.**.
..*..*
....*.
......

Generation = 6, Population = 8.
.***..
.*.**.
..*..*
......
......

Generation = 7, Population = 8.
.*.**.
.*..*.
..***.
......
......

Generation = 8, Population = 9.
..***.
.*...*
..***.
...*..
......

Generation = 9, Population = 11.
..***.
.*...*
..***.
..***.
......

Generation = 10, Population = 10.
..***.
.*...*
.*...*
..*.*.
...*..

Generation = 11, Population = 14.
..***.
.*.*.*
.**.**
..***.
...*..

Generation = 12, Population = 12.
..***.
.*...*
.*...*
.*...*
..***.

Generation = 13, Population = 17.
..***.
.*.*.*
***.**
.*.*.*
..***.

Generation = 14, Population = 12.
..***.
*....*
*....*
*....*
..***.

*** Life<ConwayCell> 9x6 ***

Generation = 0, Population = 20.
*.*...
**.*.*
...*..
..*.*.
.*....
......
**.*.*
**....
*.*.**

Generation = 2, Population = 17.
*.**..
*..**.
**....
..**..
...*..
*.*...
*..*..
*.*...
......

Generation = 4, Population = 17.
.**.*.
*....*
*...*.
...**.
*...*.
*...*.
*..*..
.**...
......

Generation = 6, Population = 14.
....*.
..**.*
..*...
......
..*...
**...*
*...*.
.***..
......

Generation = 8, Population = 18.
..*.*.
......
..*.*.
..*...
**....
***...
*..**.
.*..*.
.***..

Generation = 10, Population = 17.
......
......
..**..
..**..
.*....
.****.
*...*.
*...*.
****..

Generation = 12, Population = 15.
......
......
..**..
.*.**.
....*.
*.....
*....*
*...**
*.**..

Generation = 14, Population = 17.
......
...*..
...**.
..*..*
...**.
...*.*
**.*.*
*.....
..**.*

Generation = 16, Population = 17.
......
..*.*.
..*..*
.*...*
..**.*
...*..
*****.
*.*...
......

*** Life<ConwayCell> 7x9 ***

Generation = 0, Population = 19.
*...*..*.
...**..*.
*.......*
..*......
*.....*.*
.*.*..*..
.*...**.*

Generation = 2, Population = 18.
...**....
..*......
..***..**
.*.......
......**.
*..*.*...
..*..***.

Generation = 4, Population = 12.
.........
.*.......
.*.......
.*.*...*.
...**.**.
....*....
....*.*..

Generation = 6, Population = 7.
.........
.........
.........
.*.....*.
..*.....*
.......*.
.....**..

*** Life<ConwayCell> 7x9 ***

Generation = 0, Population = 18.
....***..
.*..**...
**......*
.*.....*.
....**..*
.*......*
....**...

Generation = 1, Population = 15.
....*.*..
**..*.*..
***......
**.....**
.......**
.........
.........

Generation = 2, Population = 11.
.........
*.**.....
..*....*.
*.*....**
.......**
.........
.........

Generation = 3, Population = 10.
.........
.***.....
..*....**
.*....*..
.......**
.........
.........

Generation = 4, Population = 8.
..*......
.***.....
...*...*.
......*..
.......*.
.........
.........

Generation = 5, Population = 8.
.***.....
.*.*.....
...*.....
......**.
.........
.........
.........

Generation = 6, Population = 6.
.*.*.....
.*.**....
..*......
.........
.........
.........
.........

Generation = 7, Population = 7.
...**....
.*.**....
..**.....
.........
.........
.........
.........

Generation = 8, Population = 6.
..***....
.........
..***....
.........
.........
.........
.........

Generation = 9, Population = 3.
...*.....
.........
...*.....
...*.....
.........
.........
.........

Generation = 10, Population = 0.
.........
.........
.........
.........
.........
.........
.........

*** Life<ConwayCell> 8x7 ***

Generation = 0, Population = 15.
**.....
.....**
.......
.*...*.
*..****
*......
.......
*....**

Generation = 1, Population = 11.
.......
.......
.....**
.....**
**..***
....**.
.......
.......

Generation = 2, Population = 4.
.......
.......
.....**
.......
.......
....*.*
.......
.......

Generation = 3, Population = 0.
.......
.......
.......
.......
.......
.......
.......
.......

Generation = 4, Population = 0.
.......
.......
.......
.......
.......
.......
.......
.......

Generation = 5, Population = 0.
.......
.......
.......
.......
.......
.......
.......
.......

Generation = 6, Population = 0.
.......
.......
.......
.......
.......
.......
.......
.......

Generation = 7, Population = 0.
.......
.......
.......
.......
.......
.......
.......
.......

Generation = 8, Population = 0.
.......
.......
.......
.......
.......
.......
.......
.......

*** Life<ConwayCell> 8x10 ***

Generation = 0, Population = 21.
.....*....
..*....*..
..*......*
..*.**..*.
*..*.*....
*.*..**...
.*.*......
.**..*....

Generation = 4, Population = 15.
..........
..**......
.*........
..***.....
....**....
..**...*..
.*.....*..
.*...*....

*** Life<ConwayCell> 9x7 ***

Generation = 0, Population = 19.
.*.....
.**..*.
......*
...**.*
...*.*.
.***.*.
*...**.
....*..
......*

Generation = 2, Population = 11.
.**....
.......
.*..*..
..*...*
.......
.*.*...
.*...**
.......
.......

Generation = 4, Population = 3.
.......
.......
.......
.......
.......
.***...
.......
.......
.......

Generation = 6, Population = 3.
.......
.......
.......
.......
.......
.***...
.......
.......
.......

Generation = 8, Population = 3.
.......
.......
.......
.......
.......
.***...
.......
.......
.......

Generation = 10, Population = 3.
.......
.......
.......
.......
.......
.***...
.......
.......
.......

*** Life<ConwayCell> 10x9 ***

Generation = 0, Population = 20.
..*......
..**..*..
....*.***
..*.**...
*...*....
....*...*
.........
...**....
.........
......***

Generation = 1, Population = 18.
..**.....
..**.**..
..*.*.**.
....*.**.
....*....
.........
...**....
.........
.......*.
.......*.

Generation = 2, Population = 15.
..***....
.*...***.
..*.*....
....*.**.
.....*...
...**....
.........
.........
.........
.........

Generation = 3, Population = 17.
..*****..
.*...**..
...**....
...**.*..
...*.**..
....*....
.........
.........
.........
.........

Generation = 4, Population = 14.
..***.*..
......*..
..**..*..
..*...*..
...*..*..
....**...
.........
.........
.........
.........

Generation = 5, Population = 19.
...*.*...
....*.**.
..**.***.
..*..***.
...**.*..
....**...
.........
.........
.........
.........

Generation = 6, Population = 14.
....***..
..*....*.
..**....*
..*......
...*...*.
...***...
.........
.........
.........
.........

Generation = 7, Population = 16.
.....**..
..*.****.
.***.....
..*......
..**.....
...**....
....*....
.........
.........
.........

Generation = 8, Population = 16.
....*..*.
.**.*..*.
.*..***..
.........
..*.*....
..*.*....
...**....
.........
.........
.........

Generation = 9, Population = 18.
...*.....
.**.*..*.
.******..
...**....
.........
..*.**...
...**....
.........
.........
.........

Generation = 10, Population = 12.
..**.....
.*....*..
.*....*..
.........
.....*...
....**...
...***...
.........
.........
.........

Generation = 11, Population = 9.
..*......
.*.......
.........
.........
....**...
...*..*..
...*.*...
....*....
.........
.........

Generation = 12, Population = 7.
.........
.........
.........
.........
....**...
...*..*..
...*.*...
....*....
.........
.........

Generation = 13, Population = 7.
.........
.........
.........
.........
....**...
...*..*..
...*.*...
....*....
.........
.........

Generation = 14, Population = 7.
.........
.........
.........
.........
....**...
...*..*..
...*.*...
....*....
.........
.........

Generation = 15, Population = 7.
.........
.........
.........
.........
....**...
...*..*..
...*.*...
....*....
.........
.........

Generation = 16, Population = 7.
.........
.........
.........
.........
....**...
...*..*..
...*.*...
....*....
.........
.........

Generation = 17, Population = 7.
.........
.........
.........
.........
....**...
...*..*..
...*.*...
....*....
.........
.........

Generation = 18, Population = 7.
.........
.........
.........
.........
....**...
...*..*..
...*.*...
....*....
.........
.........

*** Life<ConwayCell> 8x9 ***

Generation = 0, Population = 16.
..*...*..
...***..*
..*......
*..*.....
*........
..*..*...
......*..
*.*.....*

Generation = 4, Population = 4.
.........
.........
.*..*....
..*......
..*......
.........
.........
.........

Generation = 8, Population = 3.
.........
.........
..*......
..*......
..*......
.........
.........
.........

Generation = 12, Population = 3.
.........
.........
..*......
..*......
..*......
.........
.........
.........

Generation = 16, Population = 3.
.........
.........
..*......
..*......
..*......
.........
.........
.........

*** Life<ConwayCell> 8x8 ***

Generation = 0, Population = 20.
****.*..
.***..*.
.*......
....*...
.*...*.*
........
..*.*.**
**......

Generation = 4, Population = 2.
........
........
..**....
........
........
........
........
........

Generation = 8, Population = 0.
........
........
........
........
........
........
........
........

*** Life<ConwayCell> 8x6 ***

Generation = 0, Population = 14.
.*....
*.**..
......
.*....
..*.**
.*..*.
..*.**
..*...

Generation = 4, Population = 19.
.**...
*..*..
**.**.
.*..*.
*....*
*....*
*....*
.**.*.

Generation = 8, Population = 3.
.*.*..
...*..
......
......
......
......
......
......

Generation = 12, Population = 0.
......
......
......
......
......
......
......
......

Generation = 16, Population = 0.
......
......
......
......
......
......
......
......

Generation = 20, Population = 0.
......
......
......
......
......
......
......
......

*** Life<ConwayCell> 6x5 ***

Generation = 0, Population = 18.
....*
..***
.****
*..**
****.
.*.**

Generation = 2, Population = 7.
.....
.....
**...
**...
*....
**...

Generation = 4, Population = 0.
.....
.....
.....
.....
.....
.....

Generation = 6, Population = 0.
.....
.....
.....
.....
.....
.....

Generation = 8, Population = 0.
.....
.....
.....
.....
.....
.....

Generation = 10, Population = 0.
.....
.....
.....
.....
.....
.....

Generation = 12, Population = 0.
.....
.....
.....
.....
.....
.....

Generation = 14, Population = 0.
.....
.....
.....
.....
.....
.....

Generation = 16, Population = 0.
.....
.....
.....
.....
.....
.....

*** Life<ConwayCell> 7x8 ***

Generation = 0, Population = 19.
.*.**.*.
*...*...
...*.***
.*..*.**
***.....
....*...
.*......

Generation = 4, Population = 10.
........
.*....**
.***....
.*...*.*
......*.
........
........

Generation = 8, Population = 4.
........
.*......
..**....
.*......
........
........
........

Generation = 12, Population = 6.
........
..*.....
**.**...
..*.....
........
........
........

*** Life<ConwayCell> 8x7 ***

Generation = 0, Population = 21.
**..**.
*..*.*.
.**...*
.**..*.
.**....
.*.....
....*..
.*.*.**

Generation = 1, Population = 23.
**..**.
*..*.**
*..****
*..*...
*......
.**....
..*.**.
....**.

Generation = 2, Population = 29.
**..***
*.**...
****..*
**.*.*.
*.*....
.***...
.**.**.
...***.

Generation = 3, Population = 18.
******.
......*
.......
...**..
*...*..
*...*..
.*...*.
..**.*.

Generation = 4, Population = 24.
.*****.
.*****.
.......
...**..
....**.
**..**.
.***.*.
..*.*..

Generation = 5, Population = 16.
.*...*.
.*...*.
.....*.
...***.
.......
**....*
*....*.
.**.*..

Generation = 6, Population = 15.
.......
....***
.....**
....**.
....**.
**.....
*.*..*.
.*.....

Generation = 7, Population = 12.
.....*.
....*.*
.......
.......
....**.
**..**.
*.*....
.*.....

*** Life<ConwayCell> 5x10 ***

Generation = 0, Population = 15.
*....*.*..
...*......
..*...*.**
..**...*..
..*....***

Generation = 1, Population = 14.
..........
......***.
..*....**.
.***..*...
..**...**.

Generation = 2, Population = 12.
.......*..
......*.*.
.***....*.
.*....*...
.*.*...*..

Generation = 3, Population = 10.
.......*..
..*.....*.
.**.......
**.*...*..
..*.......

Generation = 4, Population = 8.
..........
.**.......
*..*......
*..*......
.**.......

Generation = 5, Population = 8.
..........
.**.......
*..*......
*..*......
.**.......

Generation = 6, Population = 8.
..........
.**.......
*..*......
*..*......
.**.......

Generation = 7, Population = 8.
..........
.**.......
*..*......
*..*......
.**.......

Generation = 8, Population = 8.
..........
.**.......
*..*......
*..*......
.**.......

Generation = 9, Population = 8.
..........
.**.......
*..*......
*..*......
.**.......

*** Life<ConwayCell> 6x8 ***

Generation = 0, Population = 16.
*...*...
.*......
**...*.*
....*..*
...**...
**.**.*.

Generation = 2, Population = 18.
........
**......
***.*.*.
.******.
..*...*.
..***...

Generation = 4, Population = 10.
........
........
.*.*..**
......**
...*.***
........

Generation = 6, Population = 5.
........
........
........
.....*.*
.....**.
......*.

Generation = 8, Population = 5.
........
........
........
......*.
....**..
.....**.

Generation = 10, Population = 4.
........
........
........
........
....*.*.
....**..

Generation = 12, Population = 4.
........
........
........
........
....**..
....**..

*** Life<ConwayCell> 9x8 ***

Generation = 0, Population = 16.
*.......
*....*..
.*......
.*..**..
.*..*...
....*...
*.*.*..*
........
.....**.

Generation = 4, Population = 6.
........
....*...
.**..*..
.*..*...
........
........
........
........
........

Generation = 8, Population = 10.
...*....
..***...
.*...*..
..***...
...*....
........
........
........
........

*** Life<ConwayCell> 8x6 ***

Generation = 0, Population = 19.
...**.
*.***.
....**
...*..
**..**
**....
..**.*
.*....

Generation = 1, Population = 16.
..*.*.
..*...
..*..*
...*..
***.*.
*..*.*
*.*...
..*...

Generation = 2, Population = 17.
...*..
.**...
..**..
...**.
***.*.
*..**.
..**..
.*....

Generation = 3, Population = 16.
..*...
.*....
.*..*.
....*.
***..*
*...*.
.****.
..*...

Generation = 4, Population = 20.
......
.**...
......
*.****
**.***
*...**
.**.*.
.**...

Generation = 5, Population = 13.
......
......
....*.
*.*..*
*.....
*.....
*.*.**
.***..

Generation = 6, Population = 10.
......
......
......
.*....
*.....
*.....
*.*.*.
.****.

Generation = 7, Population = 9.
......
......
......
......
**....
*.....
*.*.*.
.**.*.

Generation = 8, Population = 7.
......
......
......
......
**....
*.....
*.*...
.**...

Generation = 9, Population = 7.
......
......
......
......
**....
*.....
*.*...
.**...

Generation = 10, Population = 7.
......
......
......
......
**....
*.....
*.*...
.**...

Generation = 11, Population = 7.
......
......
......
......
**....
*.....
*.*...
.**...

Generation = 12, Population = 7.
......
......
......
......
**....
*.....
*.*...
.**...

Generation = 13, Population = 7.
......
......
......
......
**....
*.....
*.*...
.**...

Generation = 14, Population = 7.
......
......
......
......
**....
*.....
*.*...
.**...

Generation = 15, Population = 7.
......
......
......
......
**....
*.....
*.*...
.**...

*** Life<ConwayCell> 6x6 ***

Generation = 0, Population = 17.
....**
.*.*.*
**....
.***..
.**...
***.**

Generation = 3, Population = 15.
***.**
*.*..*
*..**.
..*...
..*.*.
...*..

Generation = 6, Population = 12.
...***
......
....**
.*****
.**...
......

Generation = 9, Population = 8.
......
...**.
.**...
.**.**
......
......

Generation = 12, Population = 7.
......
......
.*.*..
.***..
.**...
......
