*** Life<Cell> 12x26 ***

Generation = 0, Population = 10.
--------------------------
--------------------------
--------------------------
--------------0-----------
----------------0---------
------------------------0-
--------------------------
----------0---0----------0
-----------0--------------
-----0----------00--------
--------------------------
--------------------------

Generation = 67, Population = 71.
..........................
....**..............**....
..*****.....***.....**.*..
.*...***....*.*....*......
.*..*.***......*...**.*...
....*.***................*
.*.....*......1.......**.*
.*******..............*..*
..**.*.*.............*.*..
..*.***..............*.**.
..****................*...
...**.....................

Generation = 134, Population = 14.
..........................
......................**..
..**..................**..
..**......................
..........................
..........................
.......*..................
......*.*.................
......*.*.................
.......*..................
..........................
..........................

*** Life<Cell> 12x2 ***

Generation = 0, Population = 17.
0-
-0
-0
-0
00
0-
-0
0-
00
00
00
00

*** Life<Cell> 28x20 ***

Generation = 0, Population = 24.
-----0--------------
--------------0-----
0-0-----------------
------------0-------
--------------------
-----------0--------
0-------------------
--------------------
---------00---------
--------------------
--------------------
--------------------
--------------------
-0------------------
--------------------
---------0----------
--00---0------------
------0-------00----
--0-----------------
--------------------
--------------------
--------------------
--------------------
---------0----------
------------------0-
------0-------------
-------0---------00-
--------------------

*** Life<Cell> 11x3 ***

Generation = 0, Population = 13.
-0-
-00
-0-
-0-
0--
-00
--0
-0-
000
---
---

*** Life<Cell> 15x5 ***

Generation = 0, Population = 4.
-----
-----
-----
-----
--0--
--0--
-----
-----
-----
-----
-0---
-----
--0--
-----
-----

*** Life<Cell> 19x29 ***

Generation = 0, Population = 11.
-------0---------------------
-----------------------------
--0---0----------------------
---------0---------0---------
-----------------------------
---------0-------------------
-----------------------------
--------0---0----------------
-----------------------------
-----------------------------
-----------------------------
-----------------------------
-----------------------------
-----------------------------
-----------------------------
------------------------0----
------------------------0----
---------0-------------------
-----------------------------

Generation = 155, Population = 42.
.-...........................
.........*...................
...*....*.*..................
...*....*.*..................
...*.....*...................
.......................-.....
.............................
.............................
...........**................
..........*.*............**..
...........*............*..*.
........................*.*..
.........................*...
..**.........................
.**..........................
*.*..*.......................
**.***......*..........-.....
*.*.*.......*................
.***........*................

*** Life<Cell> 1x14 ***

Generation = 0, Population = 11.
0-00-0000000-0

*** Life<Cell> 3x2 ***

Generation = 0, Population = 4.
00
0-
-0

*** Life<Cell> 23x1 ***

Generation = 0, Population = 15.
0
-
0
0
-
0
0
0
0
0
-
0
-
0
0
-
-
0
-
-
0
0
0

Generation = 27, Population = 2.
-
1
.
.
.
.
-
.
-
.
.
-
.
.
.
-
.
.
.
.
.
0
-

Generation = 54, Population = 2.
1
-
.
.
.
.
-
.
-
.
.
-
.
.
.
-
.
.
.
.
.
-
1

Generation = 81, Population = 2.
-
1
.
.
.
.
-
.
-
.
.
-
.
.
.
-
.
.
.
.
.
0
-

Generation = 108, Population = 2.
1
-
.
.
.
.
-
.
-
.
.
-
.
.
.
-
.
.
.
.
.
-
1

Generation = 135, Population = 2.
-
1
.
.
.
.
-
.
-
.
.
-
.
.
.
-
.
.
.
.
.
0
-

Generation = 162, Population = 2.
1
-
.
.
.
.
-
.
-
.
.
-
.
.
.
-
.
.
.
.
.
-
1

*** Life<Cell> 30x28 ***

Generation = 0, Population = 14.
----------------------------
-------------------------0--
----------------------------
--------------------0-------
---------0------------------
----------------------------
----------------------------
----------------------------
----------------------------
----------------------------
----------------------------
-------------0--------------
----------------------------
-------------00-------------
----------------------------
--------------0-------------
-------------0--------------
----------------------------
----------------------------
----------------------------
---------0------------------
----------------------------
----------------------------
-0--------------------------
----------------------------
----------------0-----------
----------0-----------------
-0--------------------------
----------------------------
------------------0---------

Generation = 101, Population = 101.
.-..........................
............................
............................
.....................**.....
...............**...*..*....
..............*........*....
-.............*...**........
...............*............
................***..**.....
.......*........***..*......
........*...........*.......
.......**...................
.**..*......................
.*.**.**....................
.*......*...................
.**.....*...........**......
..**.*..*........**.**......
...*.*..*........**.***.....
....***...*.....*..*..**....
.....*...*.*.....*...**.....
.........*.*.....*..**......
..........*........**......-
.........*.............-....
........**...........-......
.......*..**................
......***..*...............-
......*....*.......*........
......*****........*........
.......**..........*........
............................

*** Life<Cell> 6x14 ***

Generation = 0, Population = 24.
-000------0---
0-00-0--0--0--
------00------
-----0---0----
0-0----00-0--0
0--00-0-------

*** Life<Cell> 28x1 ***

Generation = 0, Population = 21.
0
0
0
0
0
0
-
0
0
-
0
0
-
0
0
-
-
0
0
0
-
0
0
0
-
0
0
0

Generation = 137, Population = 3.
.
-
.
.
-
.
.
.
.
-
.
.
-
.
-
-
-
.
-
-
-
-
0
-
0
-
0
-

*** Life<Cell> 6x10 ***

Generation = 0, Population = 9.
----0--0-0
-----0----
--0----0--
----------
0--------0
--------0-

Generation = 25, Population = 17.
.....**..-
...**.*...
...*.*....
..-1*.....
.*.****...
*-.*..*...

Generation = 50, Population = 4.
.........-
..........
..........
..-.......
.....**...
.-...**...

Generation = 75, Population = 4.
.........-
..........
..........
..-.......
.....**...
.-...**...

*** Life<Cell> 14x5 ***

Generation = 0, Population = 25.
-----
---00
----0
-00-0
-----
-00-0
--0--
-0-00
-000-
-00-0
-0-0-
00-0-
----0
-----

Generation = 77, Population = 7.
-.-..
-.-..
-....
...-*
-..**
.....
.....
..-..
.....
.....
....-
.....
.**..
.**..

*** Life<Cell> 21x25 ***

Generation = 0, Population = 15.
-------------------------
-------------------------
-------------------------
-------------------------
-------------------------
-------------------0-----
0------0----------0-----0
-------------------------
---------------------0--0
-----------0-------------
-------0----------0------
-------------------------
---0---------------------
-------------------------
----0--------------------
----------0--------------
-------------------------
-----------------0-------
-------------------------
-------------------0-----
-------------------------

*** Life<Cell> 26x29 ***

Generation = 0, Population = 1.
-----------------------------
-----------------------------
-----------------------------
-----------------------------
-----------------------------
-----------------------------
-----------------------------
-----------------------------
--------------------------0--
-----------------------------
-----------------------------
-----------------------------
-----------------------------
-----------------------------
-----------------------------
-----------------------------
-----------------------------
-----------------------------
-----------------------------
-----------------------------
-----------------------------
-----------------------------
-----------------------------
-----------------------------
-----------------------------
-----------------------------

Generation = 169, Population = 149.
-0-0-0---0-0-0-----------0-0-
0-0-0-0-0---0-----0-----0----
-0-0-0-----------0-0---0---0-
0---0------------------------
-----------------0-0---0---0-
--------------------------0--
-----------------0-0---0-0---
----------0---0-0-0-0---0----
---------0-0-0---0-0-0-------
--0---0-0-0-0-0-0-0-0---0-0--
-0-0-0---0-0-0---0-0---0---0-
--0---0-0-0-0---0-0-----0----
---------0-0---0-0-------0-0-
----------0-----0-0-----0----
-----------------0-0---0---0-
0-0-0-0-0---0-----0-----0-0--
---------0-0-0---------------
--0---0-0---0-------------0--
-0-0-0-------------------0-0-
--------------------------0--
-0-0-0-----------------------
0---0-----0-----0-0-----0----
---------0-0---0---0---0-0---
--0---0-0-0-0---0-0-----0-0--
-0-0-0---0-0-0-----------0-0-
--0---0-0---0-------------0--

*** Life<Cell> 13x27 ***

Generation = 0, Population = 14.
---------------------------
-----------------0---------
-----------0---------------
---------------------------
------------0--------------
---------------------------
-------------0-0---0-------
-------------0--0--------0-
---------------------------
---------------------------
-----0-------0-------------
------------------0--------
-----0-----------0---------

*** Life<Cell> 22x29 ***

Generation = 0, Population = 23.
-----------------------------
-----------------------------
--------------0----0---------
----------------------0------
-----------------------------
----------0------------------
---------0----------0--------
----------0---0----0---------
-----------------------------
----------------------0---0--
-----------------------------
-----------------------------
------0----0-----------------
---0-----0--0----------------
--------------------0--------
---0-------------------------
-----------------------------
--0--------------------------
-----------------------------
------0--------------------0-
-------------------0---------
------------------0----------

Generation = 114, Population = 61.
.............................
.....*.......................
....***......................
...*..*......................
.......................-.....
.............................
.............................
.............................
**.........................-.
.*.**........................
.*..........................-
..*..*..*....................
..*...**.*....**.............
.**.......*...*.*............
.*.**........................
...........*..*............**
...........*...**....*.....**
........*...*.........*......
.........*..**.......***.....
............**.......**......
..........***...**...........
-.........**.....**..........

*** Life<Cell> 22x3 ***

Generation = 0, Population = 13.
-0-
---
--0
---
---
00-
-0-
-0-
-0-
---
---
--0
---
---
-0-
--0
--0
---
-0-
---
--0
---

*** Life<Cell> 16x23 ***

Generation = 0, Population = 10.
-----------------------
-----------------------
------------0----------
-----------------------
----------------0------
-----------------------
-----------------0-----
------------------0----
-----0-----------------
-----------------------
--0-----------------0--
----------0------------
-----------------------
--------------------0--
------------------0----
-----------------------

*** Life<Cell> 12x9 ***

Generation = 0, Population = 14.
---------
-----0---
--0------
---------
------0-0
---0----0
0------0-
---0-----
------0--
---------
------00-
0-----0--

*** Life<Cell> 27x21 ***

Generation = 0, Population = 14.
---------------------
---------------------
---------------------
-------------0-----0-
---------------------
-----------0---------
---------------------
---------------------
---------------------
----------------0----
---------------------
----0----------------
-----------0---------
---------0-----------
---------------------
-------------------0-
---------------------
--0-0----------------
---------------------
---------------------
-------0-------------
-------0-------------
---------------------
---------------------
-----------------0---
---------------------
---------0-----------

Generation = 147, Population = 24.
....................-
.....................
.....................
..................*..
...................*.
.............**...**.
.............*....*..
....**...............
....**...............
...................*.
..............***...*
...............*...*.
...............*...*.
................***..
.....................
.....................
.....................
.....................
.....................
.....................
.....................
.....................
.....................
.....................
.....................
...................-.
....................-

*** Life<Cell> 21x11 ***

Generation = 0, Population = 8.
-0---0-----
-----------
-----------
-----------
-----------
-----------
-----------
-----------
0----------
-----------
-----------
-----------
-----------
-----------
----------0
--0--------
-----------
-0---------
--------0--
0----------
-----------

*** Life<Cell> 2x13 ***

Generation = 0, Population = 15.
000-0-00-0--0
0----000-0-00

Generation = 28, Population = 8.
**....**.....
**..-.**.....

Generation = 56, Population = 8.
**....**.....
**..-.**.....

Generation = 84, Population = 8.
**....**.....
**..-.**.....
